Intro to scRNA seq - MCW MSTP Codes
…
## Calculating cluster 1

## Calculating cluster 2

# Setting only.pos = T tells Seurat to only look for genes that are upregulated in each cluster

# Let's examine the top 10 DEGs per cluster
Cl13_markers %>% group_by(cluster) %>% top_n(10, wt = avg_log2FC)

## # A tibble: 30 × 7
## # Groups:   cluster [3]
##        p_val avg_log2FC pct.1 pct.2 p_val_adj cluster gene 
##        <dbl>      <dbl> <dbl> <dbl>     <dbl> <fct>   <chr>
##  1 1.44e-165       2.97 0.712 0.116 4.03e-161 0       Cd7  
##  2 4.87e- 88       1.47 0.656 0.211 1.36e- 83 0       Cxcr6
##  3 1.62e- 83       1.26 0.706 0.255 4.54e- 79 0       Gzmk 
##  4 1.60e- 66       1.74 0.699 0.37  4.49e- 62 0       Rgs1 
##  5 1.07e- 64       1.22 0.703 0.346 2.98e- 60 0       Lag3 
##  6 1.79e- 63       1.65 0.867 0.564 5.01e- 59 0       Ccl4 
##  7 5.34e- 61       1.81 0.695 0.351 1.49e- 56 0       Ccl3 
##  8 8.52e- 53       1.29 0.433 0.127 2.39e- 48 0       Maf  
##  9 1.35e- 51       1.24 0.708 0.408 3.78e- 47 0       Nr4a2
## 10 8.70e- 49       1.22 0.418 0.13  2.43e- 44 0       Cd160
## # … with 20 more rows
…
